{
  "accounts": [
    {
      "accountId": "1001",
      "individualAccount": {
        "accountId": "1001",
        "primaryContact": {
          "firstName": "<scrubbed-name-1>",
          "lastName": "<scrubbed-name-2>",
          "email1": "example+1@example.com"
        }
      },
      "timestamps": {
        "createdDateTime": "2026-01-05T10:00:00.000Z",
        "lastModifiedDateTime": "2026-02-10T12:30:00.000Z"
      }
    },
    {
      "accountId": "1002",
      "companyAccount": {
        "accountId": "1002",
        "name": "<scrubbed-name-3> Foundation"
      },
      "timestamps": {
        "createdDateTime": "2026-01-06T11:00:00.000Z",
        "lastModifiedDateTime": "2026-02-11T09:15:00.000Z"
      }
    }
  ],
  "pagination": {
    "currentPage": 0,
    "pageSize": 2,
    "totalPages": 2,
    "totalResults": 3
  }
}
