{
  "accounts": [
    {
      "accountId": "1003",
      "individualAccount": {
        "accountId": "1003",
        "primaryContact": {
          "firstName": "<scrubbed-name-4>",
          "lastName": "<scrubbed-name-5>",
          "email1": "example+2@example.com"
        }
      },
      "timestamps": {
        "createdDateTime": "2026-01-07T08:00:00.000Z",
        "lastModifiedDateTime": "2026-02-09T07:45:00.000Z"
      }
    }
  ],
  "pagination": {
    "currentPage": 1,
    "pageSize": 2,
    "totalPages": 2,
    "totalResults": 3
  }
}
